-56 48 -64 120 -64 -48 -40 -64 -48 368
-40 48 -40 -64 168 -40 544
48 -56 56 -48 -56 -40 -48 -56 -56 456
48 -48 -56 64 -64 -40 -64 -64 -56 -56 352
40 -48 56 -64 -48 -40 -40 -40 -48 -56 432
-48 56 -40 48 -56 -64 -64 -40 -40 464
176 -56 -40 -48 -64 -56 -40 -40 408
-40 -64 -56 104 -48 -64 -48 -48 -56 392
-48 56 -40 64 -40 -64 -40 -56 520
-56 -64 112 -64 -56 -40 -48 496
160 -56 -56 -64 64 -64 -48 -40 376
-56 160 -56 -64 -48 -48 512
-48 96 -40 48 -48 -48 -48 -40 -64 440
-40 -64 64 -48 40 -56 -56 -56 504
136 -40 -40 -56 -48 -56 -56 -48 448
